2006/dump.vcd
$date
	Sun Mar 05 21:23:41 2023
$end
$version
	ModelSim Version 10.4
$end
$timescale
	10ps
$end

$scope module test $end
$var parameter 72 ! INPUT_DATA $end
$var parameter 80 " EXPECT_DATA $end
$var parameter 32 # period $end
$var reg 1 $ clk $end
$var reg 1 % reset $end
$var reg 1 & nt $end
$var reg 3 ' xi [2:0] $end
$var reg 3 ( yi [2:0] $end
$var wire 1 ) xo [2] $end
$var wire 1 * xo [1] $end
$var wire 1 + xo [0] $end
$var wire 1 , yo [2] $end
$var wire 1 - yo [1] $end
$var wire 1 . yo [0] $end
$var wire 1 / po $end
$var wire 1 0 busy $end
$var integer 32 1 i $end
$var integer 32 2 j $end
$var integer 32 3 k $end
$var integer 32 4 l $end
$var integer 32 5 out_f $end
$var integer 32 6 err $end
$var integer 32 7 pattern_num $end
$var integer 32 8 total_num $end
$var integer 32 9 total_cycle_num $end
$var integer 32 : a $end
$var integer 32 ; b $end
$var integer 32 < c $end
$var integer 32 = d $end
$var reg 6 > data_tmp_expect [5:0] $end
$var reg 6 ? data_tmp_i1 [5:0] $end
$var reg 6 @ data_tmp_i2 [5:0] $end
$var reg 6 A data_tmp_i3 [5:0] $end

$scope module top $end
$var parameter 3 B READ_1 $end
$var parameter 3 C READ_2 $end
$var parameter 3 D READ_3 $end
$var parameter 3 E WRITE $end
$var wire 1 F clk $end
$var wire 1 G reset $end
$var wire 1 H nt $end
$var wire 1 I xi [2] $end
$var wire 1 J xi [1] $end
$var wire 1 K xi [0] $end
$var wire 1 L yi [2] $end
$var wire 1 M yi [1] $end
$var wire 1 N yi [0] $end
$var reg 1 O busy $end
$var reg 1 P po $end
$var reg 3 Q xo [2:0] $end
$var reg 3 R yo [2:0] $end
$var reg 3 S cur_state [2:0] $end
$var reg 3 T next_state [2:0] $end
$var reg 4 U now_x [3:0] $end
$var reg 4 V now_y [3:0] $end
$var reg 4 W x1 [3:0] $end
$var reg 4 X x2 [3:0] $end
$var reg 4 Y x3 [3:0] $end
$var reg 4 Z y1 [3:0] $end
$var reg 4 [ y2 [3:0] $end
$var reg 4 \ y3 [3:0] $end
$upscope $end
$upscope $end
$enddefinitions $end
#0
$dumpvars
1$
0%
0&
bz '
bz (
bx >
bx ?
bx @
bx A
xO
xP
bx Q
bx R
bx S
bx T
bx U
bx V
bx W
bx X
bx Y
bx Z
bx [
bx \
b1111101000 #
b0 B
b1 C
b10 D
b11 E
b11010010110111001110000011101010111010000101110011001000110000101110100 !
b1100101011110000111000001100101011000110111010000101110011001000110000101110100 "
b0 1
b0 2
b0 3
b0 4
b10 5
b0 6
b1 7
b0 8
bx 9
bx :
bx ;
bx <
bx =
x+
x*
x)
x.
x-
x,
x/
x0
zN
zM
zL
zK
zJ
zI
0H
0G
1F
$end
#5000
0$
0F
1%
1G
b0 S
b0 Q
b0 R
0O
0P
0.
0-
0,
0+
0*
0)
00
0/
b0 T
#10000
1$
1F
b0 9
#14999
0%
b11 3
0G
#15000
0$
0F
1&
1H
b1 T
#18000
b1001 ?
b1 '
b1 (
1N
0M
0L
1K
0J
0I
#20000
1$
1F
b1 9
b1 S
1O
b1 W
b1 Z
10
b10 T
#22000
bz '
bz (
zN
zM
zL
zK
zJ
zI
#25000
0$
0F
0&
0H
#28000
b100001 @
b100 '
b1 (
1N
0M
0L
0K
0J
1I
#30000
1$
1F
b10 9
b10 S
b100 X
b1 [
b11 T
#32000
bz '
bz (
zN
zM
zL
zK
zJ
zI
#35000
0$
0F
#38000
b1111 A
b1 '
b111 (
1N
1M
1L
1K
0J
0I
#40000
1$
1F
b11 9
b11 S
b1 Y
b111 \
b1 U
b1 V
#42000
bz '
bz (
b11 1
zN
zM
zL
zK
zJ
zI
#45000
0$
0F
b0 3
#50000
1$
1F
b100 9
1P
b1 Q
b1 R
b10 U
1/
1.
1+
#55000
0$
0F
#60000
1$
1F
b1001 >
b1 4
b101 9
b10 Q
b11 U
0+
1*
#65000
0$
0F
#70000
1$
1F
b10001 >
b10 4
b110 9
b11 Q
b100 U
1+
#75000
0$
0F
#80000
1$
1F
b11001 >
b11 4
b111 9
b100 Q
b101 U
0+
0*
1)
#85000
0$
0F
#90000
1$
1F
b100001 >
b100 4
b1000 9
0P
b10 V
b1 U
0/
#95000
0$
0F
#100000
1$
1F
b1001 9
1P
b1 Q
b10 R
b10 U
1/
0.
1-
1+
0)
#105000
0$
0F
#110000
1$
1F
b1010 >
b101 4
b1010 9
b10 Q
b11 U
0+
1*
#115000
0$
0F
#120000
1$
1F
b10010 >
b110 4
b1011 9
b11 Q
b100 U
1+
#125000
0$
0F
#130000
1$
1F
b11010 >
b111 4
b1100 9
0P
b11 V
b1 U
0/
#135000
0$
0F
#140000
1$
1F
b1101 9
1P
b1 Q
b11 R
b10 U
1/
1.
0*
#145000
0$
0F
#150000
1$
1F
b1011 >
b1000 4
b1110 9
b10 Q
b11 U
0+
1*
#155000
0$
0F
#160000
1$
1F
b10011 >
b1001 4
b1111 9
b11 Q
b100 U
1+
#165000
0$
0F
#170000
1$
1F
b11011 >
b1010 4
b10000 9
0P
b100 V
b1 U
0/
#175000
0$
0F
#180000
1$
1F
b10001 9
1P
b1 Q
b100 R
b10 U
1/
0.
0-
1,
0*
#185000
0$
0F
#190000
1$
1F
b1100 >
b1011 4
b10010 9
b10 Q
b11 U
0+
1*
#195000
0$
0F
#200000
1$
1F
b10100 >
b1100 4
b10011 9
0P
b101 V
b1 U
0/
#205000
0$
0F
#210000
1$
1F
b10100 9
1P
b1 Q
b101 R
b10 U
1/
1.
1+
0*
#215000
0$
0F
#220000
1$
1F
b1101 >
b1101 4
b10101 9
b10 Q
b11 U
0+
1*
